ST 558 Homework 7
…
daily_bike_data

# A tibble: 353 × 12
   date       season holiday   rented_bike_count  rain  snow    temp humid  wind
   <date>     <fct>  <fct>                 <dbl> <dbl> <dbl>   <dbl> <dbl> <dbl>
 1 2017-12-01 Winter No Holid…              9539   0     0   -2.45    45.9 1.54 
 2 2017-12-02 Winter No Holid…              8523   0     0    1.32    62.0 1.71 
 3 2017-12-03 Winter No Holid…              7222   4     0    4.88    81.5 1.61 
 4 2017-12-04 Winter No Holid…              8729   0.1   0   -0.304   52.5 3.45 
 5 2017-12-05 Winter No Holid…              8307   0     0   -4.46    36.4 1.11 
 6 2017-12-06 Winter No Holid…              6669   1.3   8.6  0.0458  70.8 0.696
 7 2017-12-07 Winter No Holid…              8549   0    10.4  1.09    67.5 1.69 
 8 2017-12-08 Winter No Holid…              8032   0     0   -3.82    41.8 1.85 
 9 2017-12-09 Winter No Holid…              7233   0     0   -0.846   46   1.08 
10 2017-12-10 Winter No Holid…              3453   4.1  32.5  1.19    69.7 2.00 
# ℹ 343 more rows
# ℹ 3 more variables: vis <dbl>, solar_rad <dbl>, dwpt <dbl>
…
The RMSE is 2899.

Figuring out the coefficients for our 3rd recipe.

final_coefficients <- workflow3 |>
  last_fit(bike_split) |>
  extract_fit_parsnip() |>
  tidy()

final_coefficients

# A tibble: 28 × 5
   term                               estimate std.error statistic   p.value
   <chr>                                 <dbl>     <dbl>     <dbl>     <dbl>
 1 (Intercept)                          17295.      174.    99.3   6.14e-194
 2 dwpt                                  5671.     4808.     1.18  2.39e-  1
 3 season_Spring                        -4993.     1757.    -2.84  4.89e-  3
 4 season_Summer                        14674.     2419.     6.07  5.21e-  9
 5 season_Winter                         -350.     1249.    -0.281 7.79e-  1
 6 holiday_No.Holiday                    1192.      398.     2.99  3.05e-  3
 7 day_type_Weekend                     -1088.      179.    -6.09  4.56e-  9
 8 holiday_No.Holiday_x_season_Spring     854.     1642.     0.520 6.04e-  1
 9 holiday_No.Holiday_x_season_Summer   -1222.     1271.    -0.962 3.37e-  1
10 holiday_No.Holiday_x_season_Winter   -1808.     1052.    -1.72  8.70e-  2
# ℹ 18 more rows
…
The RMSE for the test set is 3080. Not as low as the 2899 for the 3rd recipe.

final_coefficients <- workflow2 |>
  last_fit(bike_split) |>
  extract_fit_parsnip() |>
  tidy()

final_coefficients

# A tibble: 21 × 5
   term          estimate std.error statistic  p.value
   <chr>            <dbl>     <dbl>     <dbl>    <dbl>
 1 (Intercept)     16863.     2128.     7.92  8.37e-14
 2 rain            -2084.      424.    -4.91  1.65e- 6
 3 snow             -122.      206.    -0.591 5.55e- 1
 4 temp             -872.     3709.    -0.235 8.14e- 1
 5 humid           -2945.     1372.    -2.15  3.28e- 2
 6 wind             -459.      213.    -2.16  3.21e- 2
 7 vis               152.      275.     0.551 5.82e- 1
 8 solar_rad        3241.      335.     9.69  5.85e-19
 9 dwpt             7913.     4240.     1.87  6.32e- 2
10 season_Spring   -8016.     3813.    -2.10  3.66e- 2
# ℹ 11 more rows
