ST558_HW7
…
The dataset has no missing values, so no data needed to be removed or filled in before the analysis.

Split the training set

set.seed(10)

bike_split <- initial_split(bike, prop = 0.70)

bike_train <- training(bike_split)
bike_test <- testing(bike_split)

bike_train

# A tibble: 6,132 × 14
   date       rented_bike_count  hour temperature_c humidity_percent
   <date>                 <dbl> <dbl>         <dbl>            <dbl>
 1 2017-12-21               169    10          -3                 71
 2 2018-05-05               796     0          12.2               59
 3 2018-07-21               676    11          32.9               45
 4 2018-02-05               115    23         -10.5               47
 5 2018-01-30                60    21          -1.6               91
 6 2018-10-13               209     6           6.6               80
 7 2018-06-03              1274    23          22                 44
 8 2018-10-06              1459    22          17.7               78
 9 2018-08-19              1546    22          27.7               62
10 2018-09-22               875     1          19.5               83
# ℹ 6,122 more rows
# ℹ 9 more variables: wind_speed_m_s <dbl>, visibility_10m <dbl>,
#   dew_point_temperature_c <dbl>, solar_radiation_mj_m2 <dbl>,
#   rainfall_mm <dbl>, snowfall_cm <dbl>, seasons <fct>, holiday <fct>,
#   functioning_day <fct>

bike_test

# A tibble: 2,628 × 14
   date       rented_bike_count  hour temperature_c humidity_percent
   <date>                 <dbl> <dbl>         <dbl>            <dbl>
 1 2017-12-01               173     2          -6                 39
 2 2017-12-01               107     3          -6.2               40
 3 2017-12-01               100     5          -6.4               37
 4 2017-12-01               181     6          -6.6               35
 5 2017-12-01               930     8          -7.6               37
 6 2017-12-01               490     9          -6.5               27
 7 2017-12-01               484    16           1.2               54
 8 2017-12-02               328     0          -1.8               87
 9 2017-12-02               308     1          -2.2               86
10 2017-12-02               262     2          -2.9               86
# ℹ 2,618 more rows
# ℹ 9 more variables: wind_speed_m_s <dbl>, visibility_10m <dbl>,
#   dew_point_temperature_c <dbl>, solar_radiation_mj_m2 <dbl>,
#   rainfall_mm <dbl>, snowfall_cm <dbl>, seasons <fct>, holiday <fct>,
#   functioning_day <fct>
…
